"Chicago",78
"St. Louis",89
"Kansas City",92
"Atlanta",90
"Fairbanks",78
"Honolulu",86
"San Francisco",73
"Denver",91
"Los Angeles",80
"Phoenix",114
"Dallas",96
"New Orleans",91
"Miami",91
"Washington",86
"New York",86
"Boston",84
"Great Falls",85
"Boise",92
"Minn./St. Paul",70
"Seattle",76
"Quincy",100
